{
  "results": [
    {
      "popularity": 2018.184,
      "vote_count": 167,
      "video": false,
      "poster_path": "\/9HT9982bzgN5on1sLRmc1GMn6ZC.jpg",
      "id": 671039,
      "adult": false,
      "backdrop_path": "\/gnf4Cb2rms69QbCnGFJyqwBWsxv.jpg",
      "original_language": "fr",
      "original_title": "Bronx",
      "genre_ids": [
        53,
        28,
        18,
        80
      ],
      "title": "Rogue City",
      "vote_average": 6.3,
      "overview": "Caught in the crosshairs of police corruption and Marseille’s warring gangs, a loyal cop must protect his squad by taking matters into his own hands.",
      "release_date": "2020-10-30"
    },
    {
      "popularity": 1544.771,
      "vote_count": 664,
      "video": false,
      "poster_path": "\/betExZlgK0l7CZ9CsCBVcwO1OjL.jpg",
      "id": 531219,
      "adult": false,
      "backdrop_path": "\/8rIoyM6zYXJNjzGseT3MRusMPWl.jpg",
      "original_language": "en",
      "original_title": "Roald Dahl's The Witches",
      "genre_ids": [
        14,
        10751,
        12,
        35,
        27
      ],
      "title": "Roald Dahl's The Witches",
      "vote_average": 6.9,
      "overview": "In late 1967, a young orphaned boy goes to live with his loving grandma in the rural Alabama town of Demopolis. As the boy and his grandmother encounter some deceptively glamorous but thoroughly diabolical witches, she wisely whisks him away to a seaside resort. Regrettably, they arrive at precisely the same time that the world's Grand High Witch has gathered.",
      "release_date": "2020-10-26"
    },
    {
      "popularity": 1651.342,
      "vote_count": 136,
      "video": false,
      "poster_path": "\/ugZW8ocsrfgI95pnQ7wrmKDxIe.jpg",
      "id": 724989,
      "adult": false,
      "backdrop_path": "\/86L8wqGMDbwURPni2t7FQ0nDjsH.jpg",
      "original_language": "en",
      "original_title": "Hard Kill",
      "genre_ids": [
        28,
        53
      ],
      "title": "Hard Kill",
      "vote_average": 5,
      "overview": "The work of billionaire tech CEO Donovan Chalmers is so valuable that he hires mercenaries to protect it, and a terrorist group kidnaps his daughter just to get it.",
      "release_date": "2020-10-23"
    },
    {
      "popularity": 1145.858,
      "vote_count": 624,
      "video": false,
      "poster_path": "\/xrI4EnZWftpo1B7tTvlMUXVOikd.jpg",
      "id": 340102,
      "adult": false,
      "backdrop_path": "\/eCIvqa3QVCx6H09bdeOS8Al2Sqy.jpg",
      "original_language": "en",
      "original_title": "The New Mutants",
      "genre_ids": [
        28,
        878,
        27,
        12
      ],
      "title": "The New Mutants",
      "vote_average": 6.3,
      "overview": "Five young mutants, just discovering their abilities while held in a secret facility against their will, fight to escape their past sins and save themselves.",
      "release_date": "2020-08-26"
    },
    {
      "popularity": 980.751,
      "vote_count": 136,
      "video": false,
      "poster_path": "\/hddzYJtfYYeMDOQVcH58n8m1W3A.jpg",
      "id": 741074,
      "adult": false,
      "backdrop_path": "\/DA7gzvlBoxMNL0XmGgTZOyv67P.jpg",
      "original_language": "en",
      "original_title": "Once Upon a Snowman",
      "genre_ids": [
        16,
        10751,
        35,
        14
      ],
      "title": "Once Upon a Snowman",
      "vote_average": 7.1,
      "overview": "The previously untold origins of Olaf, the innocent and insightful, summer-loving snowman are revealed as we follow Olaf’s first steps as he comes to life and searches for his identity in the snowy mountains outside Arendelle.",
      "release_date": "2020-10-23"
    },
    {
      "popularity": 884.918,
      "vote_count": 1774,
      "video": false,
      "poster_path": "\/kiX7UYfOpYrMFSAGbI6j1pFkLzQ.jpg",
      "id": 613504,
      "adult": false,
      "backdrop_path": "\/6hgItrYQEG33y0I7yP2SRl2ei4w.jpg",
      "original_language": "en",
      "original_title": "After We Collided",
      "genre_ids": [
        10749,
        18
      ],
      "title": "After We Collided",
      "vote_average": 7.3,
      "overview": "Tessa finds herself struggling with her complicated relationship with Hardin; she faces a dilemma that could change their lives forever.",
      "release_date": "2020-09-02"
    },
    {
      "popularity": 776.345,
      "vote_count": 11,
      "video": false,
      "poster_path": "\/AnVD7Gn14uOTQhcc5xYZGQ9DRvS.jpg",
      "id": 624779,
      "adult": false,
      "backdrop_path": "\/h5sUE9jqoYrjsFjANJXL0gpZGye.jpg",
      "original_language": "en",
      "original_title": "VFW",
      "genre_ids": [
        28,
        53,
        27
      ],
      "title": "VFW",
      "vote_average": 4.7,
      "overview": "A typical night for veterans at a VFW turns into an all-out battle for survival when a desperate teen runs into the bar with a bag of stolen drugs. When a gang of violent punks come looking for her, the vets use every weapon at their disposal to protect the girl and themselves from an unrelenting attack.",
      "release_date": "2020-10-14"
    },
    {
      "popularity": 726.807,
      "vote_count": 391,
      "video": false,
      "poster_path": "\/lQfdytwN7eh0tXWjIiMceFdBBvD.jpg",
      "id": 560050,
      "adult": false,
      "backdrop_path": "\/htBUhLSS7FfHtydgYxUWjL3J1Q1.jpg",
      "original_language": "en",
      "original_title": "Over the Moon",
      "genre_ids": [
        16,
        12,
        10751,
        14
      ],
      "title": "Over the Moon",
      "vote_average": 7.7,
      "overview": "A girl builds a rocket to travel to the moon in hopes of meeting the legendary Moon Goddess.",
      "release_date": "2020-10-16"
    },
    {
      "popularity": 704.767,
      "id": 635302,
      "video": false,
      "vote_count": 68,
      "vote_average": 6.1,
      "title": "Demon Slayer: Kimetsu no Yaiba - The Movie: Mugen Train",
      "release_date": "2020-10-16",
      "original_language": "ja",
      "original_title": "劇場版「鬼滅の刃」無限列車編",
      "genre_ids": [
        16,
        28,
        36,
        12,
        14,
        18
      ],
      "backdrop_path": "\/xoqr4dMbRJnzuhsWDF3XNHQwJ9x.jpg",
      "adult": false,
      "overview": "Tanjirō Kamado, joined with Inosuke Hashibira, a boy raised by boars who wears a boar's head, and Zenitsu Agatsuma, a scared boy who reveals his true power when he sleeps, boards the Infinity Train on a new mission with the Fire Hashira, Kyōjurō Rengoku, to defeat a demon who has been tormenting the people and killing the demon slayers who oppose it!",
      "poster_path": "\/h8Rb9gBr48ODIwYUttZNYeMWeUU.jpg"
    },
    {
      "popularity": 631.098,
      "vote_count": 760,
      "video": false,
      "poster_path": "\/sy6DvAu72kjoseZEjocnm2ZZ09i.jpg",
      "id": 581392,
      "adult": false,
      "backdrop_path": "\/gEjNlhZhyHeto6Fy5wWy5Uk3A9D.jpg",
      "original_language": "ko",
      "original_title": "반도",
      "genre_ids": [
        28,
        27,
        53
      ],
      "title": "Peninsula",
      "vote_average": 7,
      "overview": "A soldier and his team battle hordes of post-apocalyptic zombies in the wastelands of the Korean Peninsula.",
      "release_date": "2020-07-15"
    },
    {
      "popularity": 635.038,
      "vote_count": 614,
      "video": false,
      "poster_path": "\/qzA87Wf4jo1h8JMk9GilyIYvwsA.jpg",
      "id": 539885,
      "adult": false,
      "backdrop_path": "\/54yOImQgj8i85u9hxxnaIQBRUuo.jpg",
      "original_language": "en",
      "original_title": "Ava",
      "genre_ids": [
        28,
        80,
        18,
        53
      ],
      "title": "Ava",
      "vote_average": 5.7,
      "overview": "A black ops assassin is forced to fight for her own survival after a job goes dangerously wrong.",
      "release_date": "2020-07-02"
    },
    {
      "popularity": 480.018,
      "vote_count": 28,
      "video": false,
      "poster_path": "\/4rjHhj1BAREc9zNFU8FheLJQdFf.jpg",
      "id": 621151,
      "adult": false,
      "backdrop_path": "\/5gllGAa3c9UqeRI8r6GXiQJIEtp.jpg",
      "original_language": "en",
      "original_title": "Spell",
      "genre_ids": [
        53,
        27
      ],
      "title": "Spell",
      "vote_average": 5.8,
      "overview": "A father survives a plane crash in rural Appalachia, but becomes suspicious of the elderly couple who take him in to nurse him back to health with the ancient remedies.",
      "release_date": "2020-10-30"
    },
    {
      "popularity": 499.652,
      "vote_count": 350,
      "video": false,
      "poster_path": "\/uOw5JD8IlD546feZ6oxbIjvN66P.jpg",
      "id": 718444,
      "adult": false,
      "backdrop_path": "\/x4UkhIQuHIJyeeOTdcbZ3t3gBSa.jpg",
      "original_language": "en",
      "original_title": "Rogue",
      "genre_ids": [
        28,
        12,
        18,
        53
      ],
      "title": "Rogue",
      "vote_average": 5.8,
      "overview": "Battle-hardened O’Hara leads a lively mercenary team of soldiers on a daring mission: rescue hostages from their captors in remote Africa. But as the mission goes awry and the team is stranded, O’Hara’s squad must face a bloody, brutal encounter with a gang of rebels.",
      "release_date": "2020-08-20"
    },
    {
      "popularity": 414.602,
      "vote_count": 40,
      "video": false,
      "poster_path": "\/5WXeYnezavNI6hXH74aQYv6yFzj.jpg",
      "id": 524216,
      "adult": false,
      "backdrop_path": "\/tsGSTBl5H8DBLnHc24Teny0Ppc5.jpg",
      "original_language": "en",
      "original_title": "The Mortuary Collection",
      "genre_ids": [
        14,
        27
      ],
      "title": "The Mortuary Collection",
      "vote_average": 6.7,
      "overview": "In the phantasmagorical town of Raven's End, a misguided young girl takes refuge in a decrepit old mortuary. The eccentric undertaker chronicles the strange history of the town through a series of twisted tales, each more terrifying than the last, but the young girl's world is unhinged when she discovers that the final story... is her own.",
      "release_date": "2020-10-08"
    },
    {
      "popularity": 382.514,
      "vote_count": 178,
      "video": false,
      "poster_path": "\/3eg0kGC2Xh0vhydJHO37Sp4cmMt.jpg",
      "id": 531499,
      "adult": false,
      "backdrop_path": "\/zogWnCSztU8xvabaepQnAwsOtOt.jpg",
      "original_language": "en",
      "original_title": "The Tax Collector",
      "genre_ids": [
        28,
        80,
        18
      ],
      "title": "The Tax Collector",
      "vote_average": 6,
      "overview": "David Cuevas is a family man who works as a gangland tax collector for high ranking Los Angeles gang members. He makes collections across the city with his partner Creeper making sure people pay up or will see retaliation. An old threat returns to Los Angeles that puts everything David loves in harm’s way.",
      "release_date": "2020-08-07"
    },
    {
      "popularity": 352.819,
      "vote_count": 343,
      "video": false,
      "poster_path": "\/r4Lm1XKP0VsTgHX4LG4syAwYA2I.jpg",
      "id": 590223,
      "adult": false,
      "backdrop_path": "\/lA5fOBqTOQBQ1s9lEYYPmNXoYLi.jpg",
      "original_language": "en",
      "original_title": "Love and Monsters",
      "genre_ids": [
        28,
        12,
        35,
        878
      ],
      "title": "Love and Monsters",
      "vote_average": 7.6,
      "overview": "Seven years after the Monsterpocalypse, Joel Dawson, along with the rest of humanity, has been living underground ever since giant creatures took control of the land. After reconnecting over radio with his high school girlfriend Aimee, who is now 80 miles away at a coastal colony, Joel begins to fall for her again. As Joel realizes that there’s nothing left for him underground, he decides against all logic to venture out to Aimee, despite all the dangerous monsters that stand in his way.",
      "release_date": "2020-10-16"
    },
    {
      "popularity": 351.53,
      "vote_count": 1287,
      "video": false,
      "poster_path": "\/7W0G3YECgDAfnuiHG91r8WqgIOe.jpg",
      "id": 446893,
      "adult": false,
      "backdrop_path": "\/qsxhnirlp7y4Ae9bd11oYJSX59j.jpg",
      "original_language": "en",
      "original_title": "Trolls World Tour",
      "genre_ids": [
        16,
        10751,
        35,
        14,
        12,
        10402
      ],
      "title": "Trolls World Tour",
      "vote_average": 7.5,
      "overview": "Queen Poppy and Branch make a surprising discovery — there are other Troll worlds beyond their own, and their distinct differences create big clashes between these various tribes. When a mysterious threat puts all of the Trolls across the land in danger, Poppy, Branch, and their band of friends must embark on an epic quest to create harmony among the feuding Trolls to unite them against certain doom.",
      "release_date": "2020-03-12"
    },
    {
      "popularity": 421.723,
      "vote_count": 26,
      "video": false,
      "poster_path": "\/e98dJUitAoKLwmzjQ0Yxp1VQrnU.jpg",
      "id": 571384,
      "adult": false,
      "backdrop_path": "\/5HahZPsGGaDgnFb68J49ZwdwU0b.jpg",
      "original_language": "en",
      "original_title": "Come Play",
      "genre_ids": [
        27
      ],
      "title": "Come Play",
      "vote_average": 6.3,
      "overview": "A lonely young boy feels different from everyone else. Desperate for a friend, he seeks solace and refuge in his ever-present cell phone and tablet. When a mysterious creature uses the boy’s devices against him to break into our world, his parents must fight to save their son from the monster beyond the screen.",
      "release_date": "2020-10-28"
    },
    {
      "popularity": 342.517,
      "vote_count": 118,
      "video": false,
      "poster_path": "\/yUFbPtWeDbVR3zmqshOaL5lScyo.jpg",
      "id": 425001,
      "adult": false,
      "backdrop_path": "\/4gKyQ1McHa8ZKDsYoyKQSevF01J.jpg",
      "original_language": "en",
      "original_title": "The War with Grandpa",
      "genre_ids": [
        35,
        10751,
        18
      ],
      "title": "The War with Grandpa",
      "vote_average": 5.9,
      "overview": "Peter is thrilled that his Grandpa is coming to live with his family. That is, until Grandpa moves into Peter's room, forcing him upstairs into the creepy attic. And though he loves his Grandpa, he wants his room back - so he has no choice but to declare war.",
      "release_date": "2020-08-27"
    },
    {
      "popularity": 282.34,
      "vote_count": 99,
      "video": false,
      "poster_path": "\/4BgSWFMW2MJ0dT5metLzsRWO7IJ.jpg",
      "id": 726739,
      "adult": false,
      "backdrop_path": "\/t22fWbzdnThPseipsdpwgdPOPCR.jpg",
      "original_language": "en",
      "original_title": "Cats & Dogs 3: Paws Unite",
      "genre_ids": [
        35,
        28
      ],
      "title": "Cats & Dogs 3: Paws Unite",
      "vote_average": 6.5,
      "overview": "It's been ten years since the creation of the Great Truce, an elaborate joint-species surveillance system designed and monitored by cats and dogs to keep the peace when conflicts arise. But when a tech-savvy villain hacks into wireless networks to use frequencies only heard by cats and dogs, he manipulates them into conflict and the worldwide battle between cats and dogs is BACK ON. Now, a team of inexperienced and untested agents will have to use their old-school animal instincts to restore order and peace between cats and dogs everywhere.",
      "release_date": "2020-10-02"
    }
  ],
  "page": 1,
  "total_results": 1347,
  "dates": {
    "maximum": "2020-11-20",
    "minimum": "2020-10-03"
  },
  "total_pages": 68
}