{
  "page": 1,
  "total_results": 235,
  "total_pages": 12,
  "results": [
    {
      "original_name": "The Good Doctor",
      "genre_ids": [
        18
      ],
      "name": "The Good Doctor",
      "popularity": 1250.348,
      "origin_country": [
        "US"
      ],
      "vote_count": 5546,
      "first_air_date": "2017-09-25",
      "backdrop_path": "\/iDbIEpCM9nhoayUDTwqFL1iVwzb.jpg",
      "original_language": "en",
      "id": 71712,
      "vote_average": 8.6,
      "overview": "A young surgeon with Savant syndrome is recruited into the surgical unit of a prestigious hospital. The question will arise: can a person who doesn't have the ability to relate to people actually save their lives?",
      "poster_path": "\/6tfT03sGp9k4c0J3dypjrI8TSAI.jpg"
    },
    {
      "original_name": "His Dark Materials",
      "genre_ids": [
        18,
        10765
      ],
      "name": "His Dark Materials",
      "popularity": 590.406,
      "origin_country": [
        "GB"
      ],
      "vote_count": 529,
      "first_air_date": "2019-11-03",
      "backdrop_path": "\/9yKCJTOh9m3Lol2RY3kw99QPH6x.jpg",
      "original_language": "en",
      "id": 68507,
      "vote_average": 8.1,
      "overview": "Lyra is an orphan who lives in a parallel universe in which science, theology and magic are entwined. Lyra's search for a kidnapped friend uncovers a sinister plot involving stolen children, and turns into a quest to understand a mysterious phenomenon called Dust. She is later joined on her journey by Will, a boy who possesses a knife that can cut windows between worlds. As Lyra learns the truth about her parents and her prophesied destiny, the two young people are caught up in a war against celestial powers that ranges across many worlds.",
      "poster_path": "\/g6tIKGc3f1H5QMz1dcgCwADKpZ7.jpg"
    },
    {
      "original_name": "Fear the Walking Dead",
      "genre_ids": [
        10759,
        18
      ],
      "name": "Fear the Walking Dead",
      "popularity": 680.93,
      "origin_country": [
        "US"
      ],
      "vote_count": 2579,
      "first_air_date": "2015-08-23",
      "backdrop_path": "\/58PON1OrnBiX6CqEHgeWKVwrCn6.jpg",
      "original_language": "en",
      "id": 62286,
      "vote_average": 7.4,
      "overview": "What did the world look like as it was transforming into the horrifying apocalypse depicted in \"The Walking Dead\"? This spin-off set in Los Angeles, following new characters as they face the beginning of the end of the world, will answer that question.",
      "poster_path": "\/wGFUewXPeMErCe2xnCmmLEiHOGh.jpg"
    },
    {
      "original_name": "The Walking Dead: World Beyond",
      "genre_ids": [
        18,
        10765,
        9648
      ],
      "name": "The Walking Dead: World Beyond",
      "popularity": 436.277,
      "origin_country": [
        "US"
      ],
      "vote_count": 396,
      "first_air_date": "2020-10-04",
      "backdrop_path": "\/pLVrN9B750ehwTFdQ6n3HRUERLd.jpg",
      "original_language": "en",
      "id": 94305,
      "vote_average": 7.7,
      "overview": "A heroic group of teens sheltered from the dangers of the post-apocalyptic world receive a message that inspires them to leave the safety of the only home they have ever known and embark on a cross-country journey to find the one man who can possibly save the world.",
      "poster_path": "\/z31GxpVgDsFAF4paZR8PRsiP16D.jpg"
    },
    {
      "original_name": "The Simpsons",
      "genre_ids": [
        16,
        35,
        10751,
        18
      ],
      "name": "The Simpsons",
      "popularity": 362.632,
      "origin_country": [
        "US"
      ],
      "vote_count": 5198,
      "first_air_date": "1989-12-16",
      "backdrop_path": "\/hpU2cHC9tk90hswCFEpf5AtbqoL.jpg",
      "original_language": "en",
      "id": 456,
      "vote_average": 7.7,
      "overview": "Set in Springfield, the average American town, the show focuses on the antics and everyday adventures of the Simpson family; Homer, Marge, Bart, Lisa and Maggie, as well as a virtual cast of thousands. Since the beginning, the series has been a pop culture icon, attracting hundreds of celebrities to guest star. The show has also made name for itself in its fearless satirical take on politics, media and American life in general.",
      "poster_path": "\/2IWouZK4gkgHhJa3oyYuSWfSqbG.jpg"
    },
    {
      "original_name": "The Crown",
      "genre_ids": [
        18
      ],
      "name": "The Crown",
      "popularity": 153.672,
      "origin_country": [
        "GB",
        "US"
      ],
      "vote_count": 541,
      "first_air_date": "2016-11-04",
      "backdrop_path": "\/4InrdamBEM31unNiuEHGYTPX1e2.jpg",
      "original_language": "en",
      "id": 65494,
      "vote_average": 8.2,
      "overview": "The gripping, decades-spanning inside story of Her Majesty Queen Elizabeth II and the Prime Ministers who shaped Britain's post-war destiny. \n\nThe Crown tells the inside story of two of the most famous addresses in the world – Buckingham Palace and 10 Downing Street – and the intrigues, love lives and machinations behind the great events that shaped the second half of the 20th century. Two houses, two courts, one Crown.",
      "poster_path": "\/j3SqEpnRaIth24ktKcI9vp63P9A.jpg"
    },
    {
      "original_name": "런닝맨",
      "genre_ids": [
        35,
        10764
      ],
      "name": "Running Man",
      "popularity": 118.661,
      "origin_country": [
        "KR"
      ],
      "vote_count": 54,
      "first_air_date": "2010-07-11",
      "backdrop_path": "\/rHuXgDmrv4vMKgQZ6pu2E2iLJnM.jpg",
      "original_language": "ko",
      "id": 33238,
      "vote_average": 8.1,
      "overview": "A landmark representing Korea, how much do you know?  Korea's representative landmark to let the running man know directly!  The best performers of Korea gathered there! Solve the missions in various places and get out of there until the next morning through game!  Through constant confrontation and urgent confrontation, we will reveal the hidden behind-the-scenes of Korean landmarks!",
      "poster_path": "\/2Wmmu1MkqxJ48J7aySET9EKEjXz.jpg"
    },
    {
      "original_name": "Bob's Burgers",
      "genre_ids": [
        16,
        35
      ],
      "name": "Bob's Burgers",
      "popularity": 78.453,
      "origin_country": [
        "US"
      ],
      "vote_count": 395,
      "first_air_date": "2011-01-09",
      "backdrop_path": "\/cJKR6Au45b4M07hduVHUqUAgh8s.jpg",
      "original_language": "en",
      "id": 32726,
      "vote_average": 7.7,
      "overview": "Bob's Burgers follows a third-generation restaurateur, Bob, as he runs Bob's Burgers with the help of his wife and their three kids. Bob and his quirky family have big ideas about burgers, but fall short on service and sophistication. Despite the greasy counters, lousy location and a dearth of customers, Bob and his family are determined to make Bob's Burgers \"grand re-re-re-opening\" a success.",
      "poster_path": "\/s3p1itdt2lxYguLigF8Grwqqu8b.jpg"
    },
    {
      "original_name": "デジモンアドベンチャー：",
      "genre_ids": [
        16,
        10765,
        10759,
        35
      ],
      "name": "Digimon Adventure:",
      "popularity": 87.963,
      "origin_country": [
        "JP"
      ],
      "vote_count": 376,
      "first_air_date": "2020-04-05",
      "backdrop_path": "\/xsEMAdrDprq3Ldre56Rm0zqbfCA.jpg",
      "original_language": "ja",
      "id": 98034,
      "vote_average": 7.5,
      "overview": "The new anime will take place in 2020 and will feature an all-new story centering on Taichi Yagami when he is in his fifth year in elementary school. His partner is Agumon. The story begins in Tokyo when a large-scale network malfunction occurs. Taichi is preparing for his weekend summer camping trip when the incident happens. Taichi's mother and his younger sister Hikari get stuck on a train that won't stop moving, and Taichi heads to Shibuya in order to help them. However, on his way there, he encounters a strange phenomenon and sweeps him up into the Digital World along with the other DigiDestined.",
      "poster_path": "\/7Qspx2eFX0uBSQLLlAKnYrjZgse.jpg"
    },
    {
      "original_name": "The Undoing",
      "genre_ids": [
        18
      ],
      "name": "The Undoing",
      "popularity": 91.972,
      "origin_country": [
        "US"
      ],
      "vote_count": 50,
      "first_air_date": "2020-10-25",
      "backdrop_path": "\/r7UEmtfUZWEXPCaO1o77hDdfuqf.jpg",
      "original_language": "en",
      "id": 83851,
      "vote_average": 7.9,
      "overview": "Grace Fraser is a successful therapist on the brink of publishing her first book with a devoted husband and young son who attends an elite private school in New York City. Weeks before her book is published, a chasm opens in her life: a violent death, a missing husband, and, in the place of a man Grace thought she knew, only a chain of terrible revelations.",
      "poster_path": "\/3tDbJxobPN3EI2bBebL6zmusmw5.jpg"
    },
    {
      "original_name": "Bull",
      "genre_ids": [
        80,
        18
      ],
      "name": "Bull",
      "popularity": 74.413,
      "origin_country": [
        "US"
      ],
      "vote_count": 209,
      "first_air_date": "2016-09-20",
      "backdrop_path": "\/xFe9MQ043Nfs6DTILSMTUluMxl9.jpg",
      "original_language": "en",
      "id": 66840,
      "vote_average": 6.9,
      "overview": "Dr. Jason Bull is the brilliant, brash, and charming founder of a hugely successful trial consulting firm.",
      "poster_path": "\/voTR6Hmd7PWc74WrCeP9W3qF58A.jpg"
    },
    {
      "original_name": "WWE Raw",
      "genre_ids": [
        10764
      ],
      "name": "WWE Raw",
      "popularity": 50.727,
      "origin_country": [
        "US"
      ],
      "vote_count": 198,
      "first_air_date": "1993-01-11",
      "backdrop_path": "\/l6ci9v4XC6DCTlZG8NiufRBx3kG.jpg",
      "original_language": "en",
      "id": 4656,
      "vote_average": 6.2,
      "overview": "A regularly scheduled, live, year-round program featuring some of the biggest WWE Superstars.",
      "poster_path": "\/2bZ5c9sHbzApWVIsUoWztg43EgB.jpg"
    },
    {
      "original_name": "The Spanish Princess",
      "genre_ids": [
        18
      ],
      "name": "The Spanish Princess",
      "popularity": 63.716,
      "origin_country": [
        "US"
      ],
      "vote_count": 252,
      "first_air_date": "2019-05-05",
      "backdrop_path": "\/eqOAW52GkgbMDGIzpqlz8zwTIiO.jpg",
      "original_language": "en",
      "id": 86428,
      "vote_average": 7.6,
      "overview": "The beautiful Spanish princess, Catherine of Aragon, navigates the royal lineage of England with an eye on the throne.",
      "poster_path": "\/4Ec0jIkctpiyKuywPSRj4Pd2jEl.jpg"
    },
    {
      "original_name": "仮面ライダ",
      "genre_ids": [
        18,
        10759,
        10765
      ],
      "name": "Kamen Rider",
      "popularity": 56.678,
      "origin_country": [
        "JP"
      ],
      "vote_count": 47,
      "first_air_date": "1971-04-03",
      "backdrop_path": null,
      "original_language": "ja",
      "id": 2661,
      "vote_average": 5.1,
      "overview": "A Japanese anthology series centered around a man who transforms into a bug-themed superhero.",
      "poster_path": "\/o57T19zgZakEpre3d9ddy1UZonp.jpg"
    },
    {
      "original_name": "NCIS: New Orleans",
      "id": 61387,
      "name": "NCIS: New Orleans",
      "popularity": 63.643,
      "vote_count": 270,
      "vote_average": 7.2,
      "first_air_date": "2014-09-23",
      "poster_path": "\/1WJJUUZODmRTcFydLDBUtiztL6x.jpg",
      "genre_ids": [
        10759,
        18
      ],
      "original_language": "en",
      "backdrop_path": "\/r8rY91lzWGsjxOTWPfSKdOuExK8.jpg",
      "overview": "A drama about the local field office that investigates criminal cases affecting military personnel in The Big Easy, a city known for its music, entertainment and decadence.",
      "origin_country": [
        "US"
      ]
    },
    {
      "original_name": "L'Échappée",
      "id": 67595,
      "name": "L'Échappée",
      "popularity": 54.908,
      "vote_count": 1,
      "vote_average": 9,
      "first_air_date": "2016-09-12",
      "poster_path": "\/6FHeIMK1g1hwpOJIxmbNfdoo0W3.jpg",
      "genre_ids": [
        18
      ],
      "original_language": "fr",
      "backdrop_path": "\/nRMJ41kH3Hfv69dII1kHVLD50Vd.jpg",
      "overview": "",
      "origin_country": [
        "CA"
      ]
    },
    {
      "original_name": "Dahoam is Dahoam",
      "genre_ids": [
        10751
      ],
      "name": "Dahoam is Dahoam",
      "popularity": 40.348,
      "origin_country": [
        "DE"
      ],
      "vote_count": 2,
      "first_air_date": "2007-10-08",
      "backdrop_path": "\/1iAc3ML51uNe16jlxTQV84mLHG2.jpg",
      "original_language": "de",
      "id": 40879,
      "vote_average": 1,
      "overview": "The lives of the residents of the fictitious village of Lansing in Upper Bavaria.",
      "poster_path": "\/tGXZEUgSbgufoOpXMImSKPDd5A3.jpg"
    },
    {
      "original_name": "Fargo",
      "id": 60622,
      "name": "Fargo",
      "popularity": 65.269,
      "vote_count": 1368,
      "vote_average": 8.3,
      "first_air_date": "2014-04-15",
      "poster_path": "\/9ZIhl17uFlXCNUputSEDHwZYIEJ.jpg",
      "genre_ids": [
        80,
        18
      ],
      "original_language": "en",
      "backdrop_path": "\/xcJLhsFGVC4LVvucSqVXks2mnUJ.jpg",
      "overview": "A close-knit anthology series dealing with stories involving malice, violence and murder based in and around Minnesota.",
      "origin_country": [
        "US"
      ]
    },
    {
      "original_name": "ワンピース",
      "genre_ids": [
        10759,
        35,
        16
      ],
      "name": "One Piece",
      "popularity": 47.361,
      "origin_country": [
        "JP"
      ],
      "vote_count": 1301,
      "first_air_date": "1999-10-20",
      "backdrop_path": "\/4Mt7WHox67uJ1yErwTBFcV8KWgG.jpg",
      "original_language": "ja",
      "id": 37854,
      "vote_average": 8.6,
      "overview": "Years ago, the fearsome pirate king Gol D. Roger was executed, leaving a huge pile of treasure and the famous \"One Piece\" behind. Whoever claims the \"One Piece\" will be named the new pirate king. Monkey D. Luffy, a boy who consumed one of the \"Devil's Fruits\", has it in his head that he'll follow in the footsteps of his idol, the pirate Shanks, and find the One Piece. It helps, of course, that his body has the properties of rubber and he's surrounded by a bevy of skilled fighters and thieves to help him along the way. Monkey D. Luffy brings a bunch of his crew followed by, Roronoa Zoro, Nami, Usopp, Sanji, Tony-Tony Chopper, Nico Robin, Franky, and Brook. They will do anything to get the One Piece and become King of the Pirates!..",
      "poster_path": "\/mmbf9KTgO7zA2gc9V52vvE1ltJm.jpg"
    },
    {
      "original_name": "スーパー戦隊シリーズ",
      "genre_ids": [
        18,
        9648,
        10759,
        10765
      ],
      "name": "Super Sentai",
      "popularity": 44.834,
      "origin_country": [
        "JP"
      ],
      "vote_count": 99,
      "first_air_date": "1975-04-05",
      "backdrop_path": "\/dHlKH9vTumj7tPBeYVWGzI7UJ9I.jpg",
      "original_language": "ja",
      "id": 45253,
      "vote_average": 4.5,
      "overview": "The Super Sentai Series is the name given to the long-running Japanese superhero team genre of shows produced by Toei Co., Ltd., Toei Agency and Bandai, and aired by TV Asahi. The shows are of the tokusatsu genre, featuring live action characters and colorful special effects, and are aimed mainly at children. The Super Sentai Series is one of the most prominent tokusatsu productions in Japan, alongside the Ultra Series and the Kamen Rider Series, which it currently airs alongside in the Super Hero Time programming block on Sundays. Outside Japan, the Super Sentai Series are best known as the source material for the Power Rangers franchise.",
      "poster_path": "\/tDq8av51oHR8YWgkiHQ2oeRO5iL.jpg"
    }
  ]
}